{
    "data": [
        {
            "id": 11,
            "name": "Xero",
            "merchant_type": "retailer",
            "small_logo_url": "https://frollo-sandbox.s3.amazonaws.com/merchants/11/original/xero-logo-150F46D39F-seeklogo.com.png?1519084546"
        },
        {
            "id": 12,
            "name": "RMS E-toll",
            "merchant_type": "retailer",
            "small_logo_url": "https://frollo-sandbox.s3.amazonaws.com/merchants/12/original/Etoll_744x372.png?1519084350"
        },
        {
            "id": 13,
            "name": "Google Inc",
            "merchant_type": "retailer",
            "small_logo_url": "https://frollo-sandbox.s3.amazonaws.com/merchants/13/original/google-logo.png?1519084340"
        },
        {
            "id": 14,
            "name": "Apple Inc",
            "merchant_type": "retailer",
            "small_logo_url": "https://frollo-sandbox.s3.amazonaws.com/merchants/14/original/Apple_logo_black.svg.png?1519084491"
        },
        {
            "id": 15,
            "name": "Kickstarter, Inc.",
            "merchant_type": "retailer"
        },
        {
            "id": 16,
            "name": "Limousine.com",
            "merchant_type": "retailer",
            "small_logo_url": "https://frollo-sandbox.s3.amazonaws.com/merchants/16/original/Limousine-logo-black.png?1519084250"
        },
        {
            "id": 17,
            "name": "Witchery",
            "merchant_type": "retailer"
        },
        {
            "id": 18,
            "name": "Interest",
            "merchant_type": "transactional",
            "small_logo_url": "https://frollo-sandbox.s3.amazonaws.com/merchants/18/original/money_interest.png?1519084489"
        },
        {
            "id": 19,
            "name": "Optus",
            "merchant_type": "retailer",
            "small_logo_url": "https://frollo-sandbox.s3.amazonaws.com/merchants/19/original/Optus-Logo-PNG-04905.png?1519084543"
        },
        {
            "id": 20,
            "name": "Sydney Airport",
            "merchant_type": "retailer",
            "small_logo_url": "https://frollo-sandbox.s3.amazonaws.com/merchants/20/original/9czxWZxi.png?1519084389"
        },
        {
            "id": 21,
            "name": "NEWSLINK",
            "merchant_type": "retailer",
            "small_logo_url": "https://frollo-sandbox.s3.amazonaws.com/merchants/21/original/Newslink_0.png?1519084448"
        },
        {
            "id": 22,
            "name": "Blooms The Chemist",
            "merchant_type": "retailer",
            "small_logo_url": "https://frollo-sandbox.s3.amazonaws.com/merchants/22/original/b92916c3b708b802e38072ee76523b14_d735b04e00161f6a3025a40cd770783502ffda0c3409684663d6c1267d24d524.png?1519084393"
        },
        {
            "id": 23,
            "name": "IGA grocery stores",
            "merchant_type": "retailer",
            "small_logo_url": "https://frollo-sandbox.s3.amazonaws.com/merchants/23/original/Screen_Shot_2017-02-17_at_10.43.34_am.png?1519084478"
        },
        {
            "id": 24,
            "name": "Cash Withdrawal",
            "merchant_type": "transactional",
            "small_logo_url": "https://frollo-sandbox.s3.amazonaws.com/merchants/24/original/ANZ-logo-vector-download.png?1562660645"
        },
        {
            "id": 25,
            "name": "Webjet",
            "merchant_type": "retailer"
        },
        {
            "id": 26,
            "name": "Airbnb, Inc.",
            "merchant_type": "retailer",
            "small_logo_url": "https://frollo-sandbox.s3.amazonaws.com/merchants/26/original/airbnb-logo.png?1519084508"
        },
        {
            "id": 27,
            "name": "Qantas Airways",
            "merchant_type": "retailer",
            "small_logo_url": "https://frollo-sandbox.s3.amazonaws.com/merchants/27/original/qantas1984.png?1519084362"
        },
        {
            "id": 28,
            "name": "Salary",
            "merchant_type": "transactional",
            "small_logo_url": "https://frollo-sandbox.s3.amazonaws.com/merchants/28/original/Background.png?1519084474"
        },
        {
            "id": 29,
            "name": "Rebate",
            "merchant_type": "retailer"
        },
        {
            "id": 30,
            "name": "Sportsbet Pty Ltd",
            "merchant_type": "retailer",
            "small_logo_url": "https://frollo-sandbox.s3.amazonaws.com/merchants/30/original/sportsbet_square_bigger.png?1519084410"
        },
        {
            "id": 31,
            "name": "PayPal",
            "merchant_type": "retailer",
            "small_logo_url": "https://frollo-sandbox.s3.amazonaws.com/merchants/31/original/paypal_2014_logo_detail.png?1519084260"
        },
        {
            "id": 32,
            "name": "ANZ",
            "merchant_type": "retailer",
            "small_logo_url": "https://frollo-sandbox.s3.amazonaws.com/merchants/32/original/Screen_Shot_2017-02-17_at_10.45.49_am.png?1519084514"
        },
        {
            "id": 33,
            "name": "Ingogo",
            "merchant_type": "retailer",
            "small_logo_url": "https://frollo-sandbox.s3.amazonaws.com/merchants/33/original/logo-circle.png?1519084530"
        },
        {
            "id": 34,
            "name": "Hey You Pty Ltd",
            "merchant_type": "retailer",
            "small_logo_url": "https://frollo-sandbox.s3.amazonaws.com/merchants/34/original/Screen_Shot_2017-02-17_at_12.41.28_pm.png?1519084342"
        },
        {
            "id": 35,
            "name": "American Express",
            "merchant_type": "retailer",
            "small_logo_url": "https://frollo-sandbox.s3.amazonaws.com/merchants/35/original/2000px-American_Express_logo.svg.png?1519084552"
        },
        {
            "id": 36,
            "name": "Game Stores",
            "merchant_type": "retailer"
        },
        {
            "id": 37,
            "name": "Virgin Australia Airlines",
            "merchant_type": "retailer",
            "small_logo_url": "https://frollo-sandbox.s3.amazonaws.com/merchants/37/original/virginlogoold.png?1519084548"
        },
        {
            "id": 38,
            "name": "Whole Foods",
            "merchant_type": "retailer",
            "small_logo_url": "https://frollo-sandbox.s3.amazonaws.com/merchants/38/original/Whole-Foods-logo.png?1519084453"
        },
        {
            "id": 39,
            "name": "Espresso",
            "merchant_type": "retailer"
        },
        {
            "id": 40,
            "name": "Netflix",
            "merchant_type": "retailer",
            "small_logo_url": "https://frollo-sandbox.s3.amazonaws.com/merchants/40/original/10478570_10152214521608870_2744465531652776073_n.0.png?1519084368"
        },
        {
            "id": 41,
            "name": "Transport for NSW",
            "merchant_type": "retailer",
            "small_logo_url": "https://frollo-sandbox.s3.amazonaws.com/merchants/41/original/1376949352693.png?1519084239"
        },
        {
            "id": 42,
            "name": "David Jones",
            "merchant_type": "retailer",
            "small_logo_url": "https://frollo-sandbox.s3.amazonaws.com/merchants/42/original/photo.png?1519084372"
        },
        {
            "id": 43,
            "name": "Kmart",
            "merchant_type": "retailer",
            "small_logo_url": "https://frollo-sandbox.s3.amazonaws.com/merchants/43/original/Screen_Shot_2017-02-17_at_11.36.41_am.png?1519084294"
        },
        {
            "id": 44,
            "name": "Coles",
            "merchant_type": "retailer",
            "small_logo_url": "https://frollo-sandbox.s3.amazonaws.com/merchants/44/original/Coles.png?1519084524"
        },
        {
            "id": 45,
            "name": "Amazon.com",
            "merchant_type": "retailer",
            "small_logo_url": "https://frollo-sandbox.s3.amazonaws.com/merchants/45/original/6a00d83451b36c69e201b7c8d1290d970b-600wi.png?1519084338"
        },
        {
            "id": 46,
            "name": "Lime Taxis",
            "merchant_type": "retailer"
        },
        {
            "id": 47,
            "name": "Bupa",
            "merchant_type": "retailer",
            "small_logo_url": "https://frollo-sandbox.s3.amazonaws.com/merchants/47/original/bupa-logo.png?1519084438"
        },
        {
            "id": 48,
            "name": "Savers",
            "merchant_type": "retailer"
        },
        {
            "id": 49,
            "name": "The Newport Casino",
            "merchant_type": "retailer"
        },
        {
            "id": 50,
            "name": "Lululemon",
            "merchant_type": "retailer",
            "small_logo_url": "https://frollo-sandbox.s3.amazonaws.com/merchants/50/original/VXqnFv33.png?1519084210"
        },
        {
            "id": 51,
            "name": "Mac",
            "merchant_type": "retailer"
        },
        {
            "id": 52,
            "name": "Nexus Venture Partners",
            "merchant_type": "retailer"
        },
        {
            "id": 53,
            "name": "Kikki.K",
            "merchant_type": "retailer",
            "small_logo_url": "https://frollo-sandbox.s3.amazonaws.com/merchants/53/original/NedkwXhp.png?1519084284"
        },
        {
            "id": 54,
            "name": "women's ready to wear",
            "merchant_type": "retailer"
        },
        {
            "id": 55,
            "name": "The Berkelouw Book",
            "merchant_type": "retailer"
        },
        {
            "id": 56,
            "name": "Mitsubishi",
            "merchant_type": "retailer"
        },
        {
            "id": 57,
            "name": "AGL",
            "merchant_type": "retailer",
            "small_logo_url": "https://frollo-sandbox.s3.amazonaws.com/merchants/57/original/AGL_Energy_logo.png?1519866340"
        },
        {
            "id": 58,
            "name": "Ink Station",
            "merchant_type": "retailer"
        },
        {
            "id": 59,
            "name": "Hoyt's Cinemas",
            "merchant_type": "retailer",
            "small_logo_url": "https://frollo-sandbox.s3.amazonaws.com/merchants/59/original/hoyts.png?1519084218"
        },
        {
            "id": 60,
            "name": "Reversal of debit entry",
            "merchant_type": "retailer"
        }
    ],
    "paging": {
        "total": 100,
        "cursors": {
            "before": "10",
            "after": "60"
        },
        "previous": "https://api-sandbox.frollo.us/api/v2/aggregation/merchants/?before=10&size=50",
        "next": "https://api-sandbox.frollo.us/api/v2/aggregation/merchants/?after=60&size=50"
    }
}
